#Celmins OEFPIL
#unit weights
x_1   -2.8877090  -2.88770899  
y_1  6.9833391  6.98339098  
x_2   5.7657510  5.76575104   
y_2   4.5054505  4.50545055  
a   414.93317    414.933166   
b   0.25221455  0.252214554   
u(x_1)   0.8572  0.610611268  
u(y_1)   0.1360  0.477988487  
u(x_2)  0.2297  0.455408908  
u(y_2)   0.4386  0.704523325  
u(a)   45.89   127.849426  
u(b)  0.1792  0.112375138  
cov(x_1,y_1)  -3.641e-2 -9.78144488e-2  
cov(x_1,x_2)  -7.694e-2 5.19302889e-2  
cov(x_1,y_2)  8.775e-2 -6.27001305e-2  
cov(x_1,a)   1.195   -5.18391975  
cov(x_1,b)    1.462e-1  -1.72191227e-2  
cov(y_1,x_2)  -2.735e-3 -1.60385949e-2  
cov(y_1,y_2)  4.034e-2 -7.35779976e-2  
cov(y_1,a)   -8.008e-1  7.58518243  
cov(y_1,b)   5.392e-3 7.01085488e-3  
cov(x_2,y_2)  -3.376e-2 -1.75612029e-2  
cov(x_2,a)   7.652 28.2302505  
cov(x_2,b)   1.963e-2 1.69826549e-2  
cov(y_2,a)  -3.930  4.54522242e-2  
cov(y_2,b)  -2.075e-2 2.07306584e-2  
cov(a,b)   1.250   8.55645968  
S_res   2.67461358439    2.67461358439157    
n_iter    10  19



#correlated weights
#Celmins OEFPIL
x_1   -3.2464085  -3.24640861  
y_1   7.6062159  7.60621594  
x_2   5.0975099  5.09750993  
y_2   3.8551901  3.85519007  
a   437.69247  437.692480   
b    0.37684461  0.376844611  
u(x_1)   0.4386  0.762443969  
u(y_1)  0.1616  0.393386935  
u(x_2)  0.1929  0.555954052  
u(y_2)   0.2832  0.525572313  
u(a)   48.76   168.897241   
u(b)   0.1324  0.164397567  
cov(x_1,y_1)   -4.213e-2 -1.30167064e-1
cov(x_1,x_2)   -5.487e-3 -1.89676884e-2  
cov(x_1,y_2)   -5.812e-2 -1.66274842e-1  
cov(x_1, a)   -0.1379 -89.9504932  
cov(x_1,b)   -4.736e-2 -1.13020072e-2  
cov(y_1,x_2)  2.153e-3 4.97661762e-2  
cov(y_1,y_2)  3.820e-2 -5.85816189e-2  
cov(y_1, a)  0.6076 58.9693976   
cov(y_1,b)  1.420e-2 4.94251241e-2  
cov(x_2,y_2)   -3.611e-3 -4.52670204e-2  
cov(x_2,a)   8.487 43.2431973  
cov(x_2,b)   6.952e-3 3.16622590e-2  
cov(y_2,a)  -0.9958 1.84379221  
cov(y_2,b)  1.613e-2 -4.46226395e-2  
cov(a,b)   2.130  16.0930226  
S_res   3.46971934038   3.46971934038304     
n_iter    21  57
